{
  "tracks" : {
    "href" : "https://api.spotify.com/v1/search?query=Ambient+Streams&type=track&market=DE&offset=0&limit=1",
    "items" : [ {
      "album" : {
        "album_type" : "album",
        "artists" : [ {
          "external_urls" : {
            "spotify" : "https://open.spotify.com/artist/7B8bzfiNYRSCKXElRPtWiE"
          },
          "href" : "https://api.spotify.com/v1/artists/7B8bzfiNYRSCKXElRPtWiE",
          "id" : "7B8bzfiNYRSCKXElRPtWiE",
          "name" : "Relaxing Spa Music",
          "type" : "artist",
          "uri" : "spotify:artist:7B8bzfiNYRSCKXElRPtWiE"
        }, {
          "external_urls" : {
            "spotify" : "https://open.spotify.com/artist/3B6M89h47V1ZxSJUYjL0ZO"
          },
          "href" : "https://api.spotify.com/v1/artists/3B6M89h47V1ZxSJUYjL0ZO",
          "id" : "3B6M89h47V1ZxSJUYjL0ZO",
          "name" : "Spa Relaxation & Spa",
          "type" : "artist",
          "uri" : "spotify:artist:3B6M89h47V1ZxSJUYjL0ZO"
        }, {
          "external_urls" : {
            "spotify" : "https://open.spotify.com/artist/3xeIqGEgOD8QQstyUXSz4J"
          },
          "href" : "https://api.spotify.com/v1/artists/3xeIqGEgOD8QQstyUXSz4J",
          "id" : "3xeIqGEgOD8QQstyUXSz4J",
          "name" : "Entspannungsmusik",
          "type" : "artist",
          "uri" : "spotify:artist:3xeIqGEgOD8QQstyUXSz4J"
        } ],
        "external_urls" : {
          "spotify" : "https://open.spotify.com/album/5gvuP8E40Ssq0fQgc8RQSq"
        },
        "href" : "https://api.spotify.com/v1/albums/5gvuP8E40Ssq0fQgc8RQSq",
        "id" : "5gvuP8E40Ssq0fQgc8RQSq",
        "images" : [ {
          "height" : 640,
          "url" : "https://i.scdn.co/image/ab67616d0000b2735cae4d353ae3aad3a06802cb",
          "width" : 640
        }, {
          "height" : 300,
          "url" : "https://i.scdn.co/image/ab67616d00001e025cae4d353ae3aad3a06802cb",
          "width" : 300
        }, {
          "height" : 64,
          "url" : "https://i.scdn.co/image/ab67616d000048515cae4d353ae3aad3a06802cb",
          "width" : 64
        } ],
        "name" : "Entspannungsmusik",
        "release_date" : "2016-09-03",
        "release_date_precision" : "day",
        "total_tracks" : 42,
        "type" : "album",
        "uri" : "spotify:album:5gvuP8E40Ssq0fQgc8RQSq"
      },
      "artists" : [ {
        "external_urls" : {
          "spotify" : "https://open.spotify.com/artist/3A81JSAePWWFgyybGr8zIE"
        },
        "href" : "https://api.spotify.com/v1/artists/3A81JSAePWWFgyybGr8zIE",
        "id" : "3A81JSAePWWFgyybGr8zIE",
        "name" : "Masala Roo",
        "type" : "artist",
        "uri" : "spotify:artist:3A81JSAePWWFgyybGr8zIE"
      } ],
      "disc_number" : 1,
      "duration_ms" : 138925,
      "explicit" : false,
      "external_ids" : {
        "isrc" : "SE37J1600168"
      },
      "external_urls" : {
        "spotify" : "https://open.spotify.com/track/4yLUboEtxGty99Rokk38lQ"
      },
      "href" : "https://api.spotify.com/v1/tracks/4yLUboEtxGty99Rokk38lQ",
      "id" : "4yLUboEtxGty99Rokk38lQ",
      "is_local" : false,
      "is_playable" : true,
      "name" : "Ambient Streams",
      "popularity" : 44,
      "preview_url" : "https://p.scdn.co/mp3-preview/7deeaf306b0fa414474f5da134a61cc19ab48a44?cid=5c8770fb34bd4fc498ac1646150f41d9",
      "track_number" : 7,
      "type" : "track",
      "uri" : "spotify:track:4yLUboEtxGty99Rokk38lQ"
    } ],
    "limit" : 1,
    "next" : "https://api.spotify.com/v1/search?query=Ambient+Streams&type=track&market=DE&offset=1&limit=1",
    "offset" : 0,
    "previous" : null,
    "total" : 5264
  }
}